{
  "content": [
    {
      "prisonerNumber": "A0013DZ",
      "bookingId": "1203742",
      "bookNumber": "40750A",
      "firstName": "RODNEY",
      "lastName": "REINDEER",
      "dateOfBirth": "2005-01-01",
      "gender": "Male",
      "youthOffender": true,
      "status": "ACTIVE IN",
      "lastMovementTypeCode": "ADM",
      "lastMovementReasonCode": "V",
      "inOutStatus": "IN",
      "prisonId": "MDI",
      "prisonName": "Moorland (HMP & YOI)",
      "cellLocation": "4-2-009",
      "aliases": [],
      "alerts": [],
      "legalStatus": "SENTENCED",
      "imprisonmentStatus": "RECEP_DET",
      "imprisonmentStatusDescription": "Determinate sentence (reception)",
      "recall": false,
      "indeterminateSentence": false,
      "receptionDate": "2022-12-12",
      "locationDescription": "Moorland (HMP & YOI)",
      "restrictedPatient": false,
      "currentIncentive": {
        "level": {
          "description": "Basic"
        },
        "dateTime": "2022-12-12T16:18:54",
        "nextReviewDate": "2023-01-12"
      }
    },
    {
      "prisonerNumber": "A0053DZ",
      "bookingId": "1203778",
      "bookNumber": "40786A",
      "firstName": "JAMES",
      "lastName": "FLEMING",
      "dateOfBirth": "2000-08-07",
      "gender": "Male",
      "youthOffender": false,
      "status": "ACTIVE IN",
      "lastMovementTypeCode": "ADM",
      "lastMovementReasonCode": "24",
      "inOutStatus": "IN",
      "prisonId": "MDI",
      "prisonName": "Moorland (HMP & YOI)",
      "cellLocation": "RECP",
      "aliases": [],
      "alerts": [],
      "legalStatus": "RECALL",
      "imprisonmentStatus": "LR_LASPO_DR",
      "imprisonmentStatusDescription": "LR - EDS LASPO Discretionary Release",
      "mostSeriousOffence": "Breach a Domestic Violence Protection Notice",
      "recall": true,
      "indeterminateSentence": false,
      "sentenceStartDate": "2018-06-15",
      "releaseDate": "2024-06-14",
      "sentenceExpiryDate": "2024-06-14",
      "licenceExpiryDate": "2024-06-14",
      "nonDtoReleaseDate": "2024-06-14",
      "nonDtoReleaseDateType": "PRRD",
      "receptionDate": "2018-06-15",
      "postRecallReleaseDate": "2024-06-14",
      "locationDescription": "Moorland (HMP & YOI)",
      "restrictedPatient": false,
      "currentIncentive": {
        "level": {
          "description": "Basic"
        },
        "dateTime": "2022-12-13T16:33:51",
        "nextReviewDate": "2018-07-15"
      }
    },
    {
      "prisonerNumber": "A5015DY",
      "bookingId": "1200650",
      "bookNumber": "38264A",
      "firstName": "ALFONSO",
      "lastName": "CHOLAK",
      "dateOfBirth": "1970-01-01",
      "gender": "Male",
      "youthOffender": false,
      "status": "ACTIVE IN",
      "lastMovementTypeCode": "ADM",
      "lastMovementReasonCode": "I",
      "inOutStatus": "IN",
      "prisonId": "MDI",
      "prisonName": "Moorland (HMP & YOI)",
      "cellLocation": "1-1-031",
      "aliases": [],
      "alerts": [
        {
          "alertType": "X",
          "alertCode": "XER",
          "active": true,
          "expired": false
        },
        {
          "alertType": "X",
          "alertCode": "XEL",
          "active": true,
          "expired": false
        }
      ],
      "category": "D",
      "legalStatus": "SENTENCED",
      "imprisonmentStatus": "SENT03",
      "imprisonmentStatusDescription": "Adult Imprisonment Without Option CJA03",
      "mostSeriousOffence": "Adulterate a medicinal product",
      "recall": false,
      "indeterminateSentence": false,
      "sentenceStartDate": "2018-08-21",
      "releaseDate": "2018-11-20",
      "sentenceExpiryDate": "2019-02-20",
      "homeDetentionCurfewEligibilityDate": "2018-10-06",
      "nonDtoReleaseDate": "2018-11-20",
      "nonDtoReleaseDateType": "ARD",
      "receptionDate": "2018-08-21",
      "automaticReleaseDate": "2018-11-20",
      "locationDescription": "Moorland (HMP & YOI)",
      "restrictedPatient": false,
      "currentIncentive": {
        "level": {
          "description": "Standard"
        },
        "dateTime": "2018-08-21T16:31:59",
        "nextReviewDate": "2019-08-21"
      }
    },
    {
      "prisonerNumber": "A5072DY",
      "bookingId": "1201586",
      "bookNumber": "38714A",
      "firstName": "FRED",
      "lastName": "SMITH",
      "dateOfBirth": "1970-01-01",
      "gender": "Male",
      "youthOffender": true,
      "status": "ACTIVE IN",
      "lastMovementTypeCode": "ADM",
      "lastMovementReasonCode": "24",
      "inOutStatus": "IN",
      "prisonId": "MDI",
      "prisonName": "Moorland (HMP & YOI)",
      "cellLocation": "3-3-025",
      "aliases": [],
      "alerts": [
        {
          "alertType": "U",
          "alertCode": "UPIU",
          "active": true,
          "expired": false
        }
      ],
      "legalStatus": "RECALL",
      "imprisonmentStatus": "CUR_ORA",
      "imprisonmentStatusDescription": "ORA Recalled from Curfew Conditions",
      "recall": true,
      "indeterminateSentence": false,
      "receptionDate": "2021-11-03",
      "locationDescription": "Moorland (HMP & YOI)",
      "restrictedPatient": false,
      "currentIncentive": {
        "level": {
          "description": "Standard"
        },
        "dateTime": "2022-05-12T11:58:24",
        "nextReviewDate": "2023-05-12"
      }
    },
    {
      "prisonerNumber": "A5089DY",
      "pncNumber": "15/0221190B",
      "pncNumberCanonicalShort": "15/221190B",
      "pncNumberCanonicalLong": "2015/221190B",
      "croNumber": "SF80/655108T",
      "bookingId": "1200835",
      "bookNumber": "38339A",
      "firstName": "JAMIE",
      "lastName": "MARKE",
      "dateOfBirth": "1970-01-01",
      "gender": "Male",
      "ethnicity": "Mixed: White and Black African",
      "youthOffender": false,
      "religion": "Agnostic",
      "nationality": "Stateless",
      "status": "ACTIVE IN",
      "lastMovementTypeCode": "ADM",
      "lastMovementReasonCode": "24",
      "inOutStatus": "IN",
      "prisonId": "MDI",
      "prisonName": "Moorland (HMP & YOI)",
      "cellLocation": "2-2-032",
      "aliases": [],
      "alerts": [],
      "csra": "Standard",
      "category": "P",
      "legalStatus": "RECALL",
      "imprisonmentStatus": "CUR_ORA",
      "imprisonmentStatusDescription": "ORA Recalled from Curfew Conditions",
      "mostSeriousOffence": "Act as member of flight crew which must be carried in a non-EASA aircraft without appropriate licence",
      "recall": true,
      "indeterminateSentence": false,
      "sentenceStartDate": "2020-02-11",
      "releaseDate": "2022-07-20",
      "sentenceExpiryDate": "2025-09-10",
      "licenceExpiryDate": "2025-09-10",
      "nonDtoReleaseDate": "2022-07-20",
      "nonDtoReleaseDateType": "CRD",
      "receptionDate": "2020-01-13",
      "conditionalReleaseDate": "2022-07-20",
      "locationDescription": "Moorland (HMP & YOI)",
      "restrictedPatient": false,
      "currentIncentive": {
        "level": {
          "description": "Standard"
        },
        "dateTime": "2021-01-06T15:50:15",
        "nextReviewDate": "2022-01-06"
      }
    },
    {
      "prisonerNumber": "A5120DY",
      "croNumber": "51916/20A",
      "bookingId": "1200867",
      "bookNumber": "38365A",
      "firstName": "CALLUM",
      "lastName": "MCCABE",
      "dateOfBirth": "1999-02-06",
      "gender": "Male",
      "ethnicity": "White: Eng./Welsh/Scot./N.Irish/British",
      "youthOffender": false,
      "maritalStatus": "Single-not married/in civil partnership",
      "religion": "Christian",
      "nationality": "British",
      "status": "ACTIVE IN",
      "lastMovementTypeCode": "ADM",
      "lastMovementReasonCode": "I",
      "inOutStatus": "IN",
      "prisonId": "MDI",
      "prisonName": "Moorland (HMP & YOI)",
      "cellLocation": "1-2-018",
      "aliases": [],
      "alerts": [],
      "csra": "Standard",
      "category": "C",
      "legalStatus": "SENTENCED",
      "imprisonmentStatus": "SENT03",
      "imprisonmentStatusDescription": "Adult Imprisonment Without Option CJA03",
      "mostSeriousOffence": "Possess with intent to supply a controlled drug of Class B - other",
      "recall": false,
      "indeterminateSentence": false,
      "sentenceStartDate": "2020-02-24",
      "releaseDate": "2021-08-24",
      "sentenceExpiryDate": "2023-02-23",
      "licenceExpiryDate": "2023-02-23",
      "homeDetentionCurfewEligibilityDate": "2021-04-12",
      "nonDtoReleaseDate": "2021-08-24",
      "nonDtoReleaseDateType": "CRD",
      "receptionDate": "2020-02-24",
      "conditionalReleaseDate": "2021-08-24",
      "locationDescription": "Moorland (HMP & YOI)",
      "restrictedPatient": false,
      "currentIncentive": {
        "level": {
          "description": "Standard"
        },
        "dateTime": "2020-02-24T13:57:31",
        "nextReviewDate": "2021-02-24"
      }
    },
    {
      "prisonerNumber": "A5165DY",
      "bookingId": "1200953",
      "bookNumber": "38426A",
      "firstName": "HARRY",
      "lastName": "STYLES",
      "dateOfBirth": "1994-02-01",
      "gender": "Male",
      "youthOffender": false,
      "status": "ACTIVE IN",
      "lastMovementTypeCode": "ADM",
      "lastMovementReasonCode": "I",
      "inOutStatus": "IN",
      "prisonId": "MDI",
      "prisonName": "Moorland (HMP & YOI)",
      "cellLocation": "1-3-004",
      "aliases": [],
      "alerts": [],
      "legalStatus": "SENTENCED",
      "imprisonmentStatus": "ADIMP_ORA",
      "imprisonmentStatusDescription": "ORA CJA03 Standard Determinate Sentence",
      "mostSeriousOffence": "AATF operator/approved exporter fail to allow authority to assess Schedule 11 conditions met (from 1st January 2019)",
      "recall": false,
      "indeterminateSentence": false,
      "sentenceStartDate": "2020-06-09",
      "releaseDate": "2021-06-08",
      "sentenceExpiryDate": "2022-06-08",
      "licenceExpiryDate": "2022-06-08",
      "homeDetentionCurfewEligibilityDate": "2021-01-25",
      "nonDtoReleaseDate": "2021-06-08",
      "nonDtoReleaseDateType": "CRD",
      "receptionDate": "2020-06-09",
      "conditionalReleaseDate": "2021-06-08",
      "locationDescription": "Moorland (HMP & YOI)",
      "restrictedPatient": false,
      "currentIncentive": {
        "level": {
          "description": "Standard"
        },
        "dateTime": "2020-06-09T09:55:55",
        "nextReviewDate": "2021-06-09"
      }
    },
    {
      "prisonerNumber": "A5190DY",
      "bookingId": "1200980",
      "bookNumber": "38451A",
      "firstName": "CANOE",
      "lastName": "REEVES",
      "dateOfBirth": "1969-01-01",
      "gender": "Male",
      "youthOffender": false,
      "status": "ACTIVE IN",
      "lastMovementTypeCode": "ADM",
      "lastMovementReasonCode": "27",
      "inOutStatus": "IN",
      "prisonId": "MDI",
      "prisonName": "Moorland (HMP & YOI)",
      "cellLocation": "CSWAP",
      "aliases": [],
      "alerts": [],
      "legalStatus": "INDETERMINATE_SENTENCE",
      "imprisonmentStatus": "DLP",
      "imprisonmentStatusDescription": "Adult Discretionary",
      "recall": false,
      "indeterminateSentence": false,
      "receptionDate": "2020-06-24",
      "locationDescription": "Moorland (HMP & YOI)",
      "restrictedPatient": false,
      "currentIncentive": {
        "level": {
          "description": "Standard"
        },
        "dateTime": "2020-06-24T10:45:48",
        "nextReviewDate": "2021-06-24"
      }
    },
    {
      "prisonerNumber": "A5197DY",
      "bookingId": "1200999",
      "bookNumber": "38464A",
      "firstName": "PAUL",
      "lastName": "MCCARTNEY",
      "dateOfBirth": "1964-02-01",
      "gender": "Male",
      "youthOffender": false,
      "status": "ACTIVE IN",
      "lastMovementTypeCode": "ADM",
      "lastMovementReasonCode": "K",
      "inOutStatus": "IN",
      "prisonId": "MDI",
      "prisonName": "Moorland (HMP & YOI)",
      "cellLocation": "1-3-004",
      "aliases": [
        {
          "firstName": "MACCA",
          "lastName": "MCCARTNEY",
          "dateOfBirth": "1964-02-01",
          "gender": "Male"
        }
      ],
      "alerts": [
        {
          "alertType": "X",
          "alertCode": "XTACT",
          "active": true,
          "expired": false
        },
        {
          "alertType": "R",
          "alertCode": "RLG",
          "active": true,
          "expired": false
        },
        {
          "alertType": "S",
          "alertCode": "SOR",
          "active": true,
          "expired": false
        }
      ],
      "legalStatus": "SENTENCED",
      "imprisonmentStatus": "SENT03",
      "imprisonmentStatusDescription": "Adult Imprisonment Without Option CJA03",
      "mostSeriousOffence": "Aggravated burglary - dwelling",
      "recall": false,
      "indeterminateSentence": false,
      "sentenceStartDate": "2020-08-17",
      "releaseDate": "2021-08-16",
      "sentenceExpiryDate": "2021-04-01",
      "licenceExpiryDate": "2022-08-16",
      "homeDetentionCurfewEligibilityDate": "2021-04-04",
      "topupSupervisionStartDate": "2022-08-17",
      "topupSupervisionExpiryDate": "2021-04-03",
      "nonDtoReleaseDate": "2021-08-16",
      "nonDtoReleaseDateType": "CRD",
      "receptionDate": "2020-08-17",
      "conditionalReleaseDate": "2021-08-16",
      "locationDescription": "Moorland (HMP & YOI)",
      "restrictedPatient": false,
      "currentIncentive": {
        "level": {
          "description": "Standard"
        },
        "dateTime": "2020-08-17T15:51:07",
        "nextReviewDate": "2021-08-17"
      }
    },
    {
      "prisonerNumber": "A7742DY",
      "bookingId": "1201033",
      "bookNumber": "38479A",
      "firstName": "JUSTIN",
      "lastName": "BIEBER",
      "dateOfBirth": "1994-03-01",
      "gender": "Male",
      "youthOffender": false,
      "status": "ACTIVE IN",
      "lastMovementTypeCode": "ADM",
      "lastMovementReasonCode": "Z",
      "inOutStatus": "IN",
      "prisonId": "MDI",
      "prisonName": "Moorland (HMP & YOI)",
      "cellLocation": "RECP",
      "aliases": [],
      "alerts": [
        {
          "alertType": "X",
          "alertCode": "XILLENT",
          "active": true,
          "expired": false
        },
        {
          "alertType": "X",
          "alertCode": "XGANG",
          "active": true,
          "expired": false
        },
        {
          "alertType": "X",
          "alertCode": "XCO",
          "active": true,
          "expired": false
        },
        {
          "alertType": "X",
          "alertCode": "XFO",
          "active": true,
          "expired": false
        }
      ],
      "category": "C",
      "legalStatus": "RECALL",
      "imprisonmentStatus": "14FTR_ORA",
      "imprisonmentStatusDescription": "ORA 14 Day Fixed Term Recall",
      "mostSeriousOffence": "Drive vehicle for more than 13 hours or more in a working day - domestic",
      "recall": true,
      "indeterminateSentence": false,
      "sentenceStartDate": "2020-10-15",
      "releaseDate": "2020-10-28",
      "sentenceExpiryDate": "2020-10-28",
      "licenceExpiryDate": "2020-10-29",
      "topupSupervisionStartDate": "2020-10-30",
      "topupSupervisionExpiryDate": "2021-10-21",
      "nonDtoReleaseDate": "2020-10-28",
      "nonDtoReleaseDateType": "PRRD",
      "receptionDate": "2020-09-14",
      "postRecallReleaseDate": "2020-10-28",
      "locationDescription": "Moorland (HMP & YOI)",
      "restrictedPatient": false,
      "currentIncentive": {
        "level": {
          "description": "Enhanced 3"
        },
        "dateTime": "2022-11-10T11:46:31",
        "nextReviewDate": "2023-11-10"
      }
    }
  ],
  "pageable": {
    "sort": {
      "empty": true,
      "sorted": false,
      "unsorted": true
    },
    "offset": 0,
    "pageSize": 10,
    "pageNumber": 0,
    "paged": true,
    "unpaged": false
  },
  "totalPages": 100,
  "last": false,
  "totalElements": 996,
  "size": 10,
  "number": 0,
  "sort": {
    "empty": true,
    "sorted": false,
    "unsorted": true
  },
  "first": true,
  "numberOfElements": 10,
  "empty": false
}
