{
  "content": [
    {
      "name": "RODNEY REINDEER",
      "firstName": "RODNEY",
      "lastName": "REINDEER",
      "prisonerNumber": "A0013DZ",
      "cellLocation": "4-2-009",
      "otherAllocations": [],
      "releaseDate": null,
      "educationLevels": [],
      "nonAssociations": false
    },
    {
      "name": "NEIL YOUNG",
      "firstName": "NEIL",
      "lastName": "YOUNG",
      "prisonerNumber": "A0227DZ",
      "cellLocation": "4-3-023",
      "otherAllocations": [],
      "releaseDate": null,
      "educationLevels": [],
      "nonAssociations": false
    },
    {
      "name": "NEIL YOUNGISH",
      "firstName": "NEIL",
      "lastName": "YOUNGISH",
      "prisonerNumber": "A0228DZ",
      "cellLocation": "5-2-B-050",
      "otherAllocations": [],
      "releaseDate": null,
      "educationLevels": [],
      "nonAssociations": false
    },
    {
      "name": "YOUNGS NEWTON",
      "firstName": "YOUNGS",
      "lastName": "NEWTON",
      "prisonerNumber": "A0233DZ",
      "cellLocation": "5-2-A-035",
      "otherAllocations": [],
      "releaseDate": null,
      "educationLevels": [],
      "nonAssociations": false
    },
    {
      "name": "MICHAEL WILLIS",
      "firstName": "MICHAEL",
      "lastName": "WILLIS",
      "prisonerNumber": "A1053DZ",
      "cellLocation": "RECP",
      "otherAllocations": [],
      "releaseDate": null,
      "educationLevels": [],
      "nonAssociations": false
    },
    {
      "name": "SIMON OLDHAM",
      "firstName": "SIMON",
      "lastName": "OLDHAM",
      "prisonerNumber": "A1348DZ",
      "cellLocation": "1-3-004",
      "otherAllocations": [],
      "releaseDate": null,
      "educationLevels": [],
      "nonAssociations": false
    },
    {
      "name": "OTIS STOLTENBERG",
      "firstName": "OTIS",
      "lastName": "STOLTENBERG",
      "prisonerNumber": "A1990DZ",
      "cellLocation": "RECP",
      "otherAllocations": [],
      "releaseDate": null,
      "educationLevels": [],
      "nonAssociations": false
    },
    {
      "name": "MAMIE SCHNEIDER",
      "firstName": "MAMIE",
      "lastName": "SCHNEIDER",
      "prisonerNumber": "A2081DZ",
      "cellLocation": "RECP",
      "otherAllocations": [],
      "releaseDate": null,
      "educationLevels": [],
      "nonAssociations": false
    },
    {
      "name": "ALFONSO CHOLAK",
      "firstName": "ALFONSO",
      "lastName": "CHOLAK",
      "prisonerNumber": "A5015DY",
      "cellLocation": "1-1-031",
      "otherAllocations": [],
      "releaseDate": "2018-11-20",
      "educationLevels": [],
      "nonAssociations": true
    },
    {
      "name": "FRED SMITH",
      "firstName": "FRED",
      "lastName": "SMITH",
      "prisonerNumber": "A5072DY",
      "cellLocation": "3-3-025",
      "otherAllocations": [],
      "releaseDate": null,
      "educationLevels": [],
      "nonAssociations": false
    }
  ],
  "pageable": {
    "sort": {
      "empty": true,
      "unsorted": true,
      "sorted": false
    },
    "offset": 0,
    "pageSize": 10,
    "pageNumber": 0,
    "paged": true,
    "unpaged": false
  },
  "totalPages": 93,
  "last": false,
  "totalElements": 926,
  "size": 10,
  "number": 0,
  "sort": {
    "empty": true,
    "unsorted": true,
    "sorted": false
  },
  "first": true,
  "numberOfElements": 10,
  "empty": false
}
